<?xml version="1.0" encoding="UTF-8"?>
<CustomTab xmlns="http://soap.sforce.com/2006/04/metadata">
    <label>Conga</label>
    <motif>Custom37: Bridge</motif>
    <page>AG_MultiTab_Opportunity</page>
</CustomTab>
