<?xml version="1.0" encoding="UTF-8"?>
<CustomTab xmlns="http://soap.sforce.com/2006/04/metadata">
    <description>CPQ Product Search tab</description>
    <label>CPQ Product Search</label>
    <motif>Custom93: Shopping Cart</motif>
    <page>CPQProductSearch</page>
</CustomTab>
