<?xml version="1.0" encoding="UTF-8"?>
<CustomTab xmlns="http://soap.sforce.com/2006/04/metadata">
    <description>Form to create CTS Care Support case.</description>
    <label>CTS Care Support Form</label>
    <motif>Custom33: Desk</motif>
    <page>CTS_Care_Support_Page</page>
</CustomTab>
