<?xml version="1.0" encoding="UTF-8"?>
<CustomTab xmlns="http://soap.sforce.com/2006/04/metadata">
    <description>Created by Lightning App Builder</description>
    <flexiPage>GAMEFFECTIVE__GamEffective_CanvasApp</flexiPage>
    <label>GamEffective CanvasApp Tab</label>
    <motif>Custom86: Red Cross</motif>
</CustomTab>
