<?xml version="1.0" encoding="UTF-8"?>
<CustomTab xmlns="http://soap.sforce.com/2006/04/metadata">
    <auraComponent>CTS_ArticleSearch</auraComponent>
    <description>Custom Knowledge/Article Search</description>
    <label>Knowledge Search</label>
    <motif>Custom55: Books</motif>
</CustomTab>
