<?xml version="1.0" encoding="UTF-8"?>
<CustomTab xmlns="http://soap.sforce.com/2006/04/metadata">
    <auraComponent>CTS_TechDirect_OutOfOfficeAsst</auraComponent>
    <description>Manage your out of office settings.</description>
    <label>Out of Office Assistant</label>
    <motif>Custom73: Highway Sign</motif>
</CustomTab>
