<?xml version="1.0" encoding="UTF-8"?>
<CustomTab xmlns="http://soap.sforce.com/2006/04/metadata">
    <label>Rep Dashboard</label>
    <motif>Custom6: Triangle</motif>
    <page>TableauRep</page>
</CustomTab>
