<?xml version="1.0" encoding="UTF-8"?>
<CustomTab xmlns="http://soap.sforce.com/2006/04/metadata">
    <label>Sync Silverpop Templates</label>
    <motif>Custom9: Lightning</motif>
    <page>silverpop__SP_Sync_Silverpop_Templates</page>
</CustomTab>
