<?xml version="1.0" encoding="UTF-8"?>
<CustomTab xmlns="http://soap.sforce.com/2006/04/metadata">
    <label>MapAnything</label>
    <motif>Custom78: Map</motif>
    <page>sma__MapAnything</page>
</CustomTab>
